# Object Export From Tinkercad Server 2015

mtllib obj.mtl

o obj_0
v -2.871 		-9.967 		16.088
v -2.294 		-10.83 		16.088
v -1.61 		-11.61 		16.088
v -4.001 		-9.314 		15
v -3.5 		-10.33 		15
v -2.871 		-11.272 		15
v -2.124 		-12.124 		15
v -4.001 		-10.619 		13.827
v -3.33 		-11.624 		13.827
v -3.663 		-11.88 		12.588
v -4.365 		-8.241 		15
v -4.924 		-8.391 		13.827
v -4.536 		-9.536 		13.827
v -5.33 		-8.5 		12.588
v -4.924 		-9.696 		12.588
v -4.365 		-10.83 		12.588
v -0.83 		-12.294 		16.088
v -1.272 		-12.871 		15
v -0.33 		-13.5 		15
v -2.533 		-12.533 		13.827
v -1.624 		-13.33 		13.827
v -0.619 		-14.001 		13.827
v -2.83 		-12.83 		12.588
v -1.88 		-13.663 		12.588
v -0.83 		-14.365 		12.588
v -3.866 		-12.036 		11.305
v -3.934 		-12.088 		10
v -3.866 		-12.036 		8.695
v -5.577 		-8.566 		11.305
v -5.16 		-9.794 		11.305
v -4.586 		-10.957 		11.305
v -5.659 		-8.588 		10
v -5.239 		-9.827 		10
v -4.66 		-11 		10
v -5.577 		-8.566 		8.695
v -5.16 		-9.794 		8.695
v -4.586 		-10.957 		8.695
v -3.011 		-13.011 		11.305
v -2.036 		-13.866 		11.305
v -0.957 		-14.586 		11.305
v 9.61 		-10.305 		2.929
v 10.294 		-10.83 		3.912
v 8.305 		-10.305 		2.066
v 9 		-11 		2.929
v 8.33 		-8.5 		1.34
v 8.83 		-12.294 		3.912
v 5.261 		-15.577 		7.412
v 6.5 		-15.33 		7.412
v 7.696 		-14.924 		7.412
v 5.206 		-15.16 		6.173
v 6.391 		-14.924 		6.173
v 7.536 		-14.536 		6.173
v 5.13 		-14.586 		5
v 6.241 		-14.365 		5
v -2.036 		-6.795 		17.934
v -0.957 		-6.653 		18.66
v -2.533 		0.533 		13.827
v -0.83 		2.365 		12.588
v -0.619 		2.001 		13.827
v 7.314 		-14.001 		5
v -1.88 		1.663 		12.588
v -2.83 		0.83 		12.588
v 0.304 		-14.924 		7.412
v 1.5 		-15.33 		7.412
v 2.739 		-15.577 		7.412
v -0.957 		2.586 		11.305
v 4 		-15.659 		7.412
v -2.036 		1.866 		11.305
v 0.464 		-14.536 		6.173
v -3.011 		1.011 		11.305
v 1.609 		-14.924 		6.173
v -3.866 		0.036 		11.305
v 4 		-6 		20
v 2.794 		-15.16 		6.173
v 4 		-15.239 		6.173
v -1 		2.66 		10
v -2.088 		1.934 		10
v 0.686 		-14.001 		5
v 1.759 		-14.365 		5
v -3.071 		1.071 		10
v 2.87 		-14.586 		5
v -3.934 		0.088 		10
v 4 		-14.66 		5
v -0.957 		2.586 		8.695
v 1.759 		-14.365 		15
v -2.036 		1.866 		8.695
v 1.947 		-13.663 		16.088
v 0.686 		-14.001 		15
v -3.011 		1.011 		8.695
v -3.866 		0.036 		8.695
v 0.464 		-14.536 		13.827
v 7.536 		-12.124 		2.929
v 1.609 		-14.924 		13.827
v 4.795 		-12.036 		2.066
v 5.576 		-11.88 		2.066
v 6.33 		-11.624 		2.066
v 7.044 		-11.272 		2.066
v 7.706 		-10.83 		2.066
v 7.044 		-9.967 		1.34
v 7.536 		-9.536 		1.34
v 7.967 		-9.044 		1.34
v 6.33 		-9.036 		0.761
v 6.706 		-8.706 		0.761
v 7.036 		-8.33 		0.761
v 4.5 		-9.794 		0.761
v 4.99 		-9.696 		0.761
v 5.464 		-9.536 		0.761
v 5.913 		-9.314 		0.761
v 4.338 		-8.566 		0.341
v 4.67 		-8.5 		0.341
v 4.99 		-8.391 		0.341
v 5.294 		-8.241 		0.341
v -3.071 		-13.071 		10
v -2.088 		-13.934 		10
v -1 		-14.66 		10
v -3.011 		-13.011 		8.695
v -2.036 		-13.866 		8.695
v -0.957 		-14.586 		8.695
v -3.663 		-0.12 		7.412
v -3.33 		-0.376 		6.173
v 4.795 		0.036 		17.934
v -4.001 		-1.381 		6.173
v 7.536 		0.124 		17.071
v -2.871 		-0.728 		5
v 6.706 		0.533 		17.071
v -3.5 		-1.67 		5
v -4.001 		-2.686 		5
v 5.83 		0.83 		17.071
v 4.923 		1.011 		17.071
v 6.588 		-6 		0.341
v -1.88 		-7.576 		17.934
v 6.566 		-5.662 		0.341
v -0.619 		-7.913 		18.66
v 6.5 		-5.33 		0.341
v -4.365 		-1.17 		7.412
v -3.011 		-6.923 		17.071
v -2.83 		-7.83 		17.071
v -4.924 		-2.304 		7.412
v 4 		0.088 		17.934
v 3.205 		0.036 		17.934
v 4 		1.071 		17.071
v 4.653 		-10.957 		1.34
v 3.077 		1.011 		17.071
v 5.294 		-10.83 		1.34
v 2.17 		0.83 		17.071
v 5.913 		-10.619 		1.34
v 1.294 		0.533 		17.071
v 0.464 		0.124 		17.071
v 6.5 		-10.33 		1.34
v 5.036 		-13.866 		3.912
v 8.305 		-1.695 		17.934
v 6.053 		-13.663 		3.912
v 7.036 		-13.33 		3.912
v 9.61 		-1.695 		17.071
v 7.967 		-12.871 		3.912
v 9 		-1 		17.071
v 4.923 		-13.011 		2.929
v 5.83 		-12.83 		2.929
v 8.305 		-0.39 		17.071
v 6.706 		-12.533 		2.929
v 8.619 		-4.087 		18.66
v 8.33 		-3.5 		18.66
v -0.83 		2.365 		7.412
v 9.624 		-3.67 		17.934
v 0.464 		-12.124 		2.929
v 9.272 		-2.956 		17.934
v -1.88 		1.663 		7.412
v 0.294 		-10.83 		2.066
v -2.83 		0.83 		7.412
v 8.83 		-2.294 		17.934
v 0.956 		-11.272 		2.066
v 1.67 		-11.624 		2.066
v 2.424 		-11.88 		2.066
v 3.205 		-12.036 		2.066
v -0.619 		2.001 		6.173
v 4 		-12.088 		2.066
v -1.624 		1.33 		6.173
v 10.533 		-3.294 		17.071
v -2.533 		0.533 		6.173
v 10.124 		-2.464 		17.071
v -0.33 		1.5 		5
v -1.272 		0.871 		5
v -2.124 		0.124 		5
v 2.706 		-8.241 		0.341
v 11.071 		-6 		17.071
v 11.011 		-5.077 		17.071
v 3.01 		-8.391 		0.341
v 10.83 		-4.17 		17.071
v 3.33 		-8.5 		0.341
v 9 		-6 		18.66
v -5.33 		-3.5 		7.412
v 8.957 		-5.347 		18.66
v 8.83 		-4.706 		18.66
v 2.794 		-15.16 		13.827
v 4 		-15.239 		13.827
v 0.304 		-14.924 		12.588
v 10.088 		-6 		17.934
v 6.053 		-4.424 		0.341
v 1.5 		-15.33 		12.588
v 10.036 		-5.205 		17.934
v 2.739 		-15.577 		12.588
v 5.83 		-4.17 		0.341
v 9.88 		-4.424 		17.934
v 4 		-15.659 		12.588
v 3.662 		-8.566 		0.341
v 4 		-8.588 		0.341
v -4.536 		-2.464 		6.173
v 4.923 		-5.077 		0.086
v 4.795 		-4.964 		0.086
v -4.924 		-3.609 		6.173
v 4.653 		-4.87 		0.086
v 4.5 		-4.794 		0.086
v -4.365 		-3.759 		5
v 4.338 		-4.739 		0.086
v 4.17 		-4.706 		0.086
v 2.087 		-9.314 		0.761
v -5.659 		-6 		7.412
v -5.577 		-7.261 		7.412
v -5.577 		-4.739 		7.412
v -5.239 		-6 		6.173
v -5.16 		-7.206 		6.173
v -5.16 		-4.794 		6.173
v -4.586 		-7.13 		5
v -4.66 		-6 		5
v -4.586 		-4.87 		5
v -1.61 		-0.39 		3.912
v -2.294 		-1.17 		3.912
v -0.33 		-8.5 		18.66
v -2.871 		-2.033 		3.912
v -1.624 		-8.33 		17.934
v -0.305 		-0.39 		2.929
v -1.272 		-9.044 		17.934
v -1 		-1 		2.929
v -0.83 		-9.706 		17.934
v -1.61 		-1.695 		2.929
v -2.533 		-8.706 		17.071
v -0.305 		-1.695 		2.066
v -2.124 		-9.536 		17.071
v -3.33 		-2.964 		3.912
v -0.305 		-10.305 		17.934
v -3.663 		-3.947 		3.912
v -1.61 		-10.305 		17.071
v -2.124 		-2.464 		2.929
v -1 		-11 		17.071
v -2.533 		-3.294 		2.929
v -0.83 		-2.294 		2.066
v -1.272 		-2.956 		2.066
v -1.624 		-3.67 		2.066
v -0.33 		-3.5 		1.34
v -0.619 		-4.087 		1.34
v -3.934 		-6 		3.912
v -3.866 		-4.964 		3.912
v -3.071 		-6 		2.929
v -2.83 		-4.17 		2.929
v -0.83 		0.294 		3.912
v 12.365 		-3.759 		15
v 12.924 		-3.609 		13.827
v 12.536 		-2.464 		13.827
v 13.33 		-3.5 		12.588
v 12.924 		-2.304 		12.588
v 12.365 		-1.17 		12.588
v 10.871 		-2.033 		16.088
v 10.294 		-1.17 		16.088
v 9.61 		-0.39 		16.088
v 11.5 		-1.67 		15
v 10.871 		-0.728 		15
v 5.294 		-15.83 		11.305
v 6.566 		-15.577 		11.305
v 7.794 		-15.16 		11.305
v -3.011 		-5.077 		2.929
v 11.663 		-3.947 		16.088
v -2.088 		-6 		2.066
v 11.33 		-2.964 		16.088
v 5.305 		-15.914 		10
v -1.88 		-4.424 		2.066
v 6.588 		-15.659 		10
v 7.827 		-15.239 		10
v -2.036 		-5.205 		2.066
v 5.294 		-15.83 		8.695
v 6.566 		-15.577 		8.695
v 12.001 		-2.686 		15
v 7.794 		-15.16 		8.695
v -3.866 		-7.036 		3.912
v -3.663 		-8.053 		3.912
v 8.619 		-7.913 		18.66
v 12.001 		-1.381 		13.827
v 5.305 		-6 		0.086
v -3.011 		-6.923 		2.929
v 8.83 		-7.294 		18.66
v 11.33 		-0.376 		13.827
v -2.83 		-7.83 		2.929
v 0.206 		-15.16 		11.305
v 5.294 		-5.83 		0.086
v 1.434 		-15.577 		11.305
v -0.305 		-11.61 		17.071
v 8.957 		-6.653 		18.66
v 5.261 		-5.662 		0.086
v 2.706 		-15.83 		11.305
v 5.206 		-5.5 		0.086
v 4 		-15.914 		11.305
v 5.13 		-5.347 		0.086
v 8.83 		0.294 		16.088
v 9.88 		-7.576 		17.934
v 10.124 		0.124 		15
v 10.036 		-6.795 		17.934
v 9.272 		0.871 		15
v 0.173 		-15.239 		10
v 8.33 		1.5 		15
v 5.036 		-5.205 		0.086
v 10.83 		-7.83 		17.071
v 11.011 		-6.923 		17.071
v 10.533 		0.533 		13.827
v 9.624 		1.33 		13.827
v 8.619 		2.001 		13.827
v 10.83 		0.83 		12.588
v 9.88 		1.663 		12.588
v 7.044 		-2.033 		18.66
v 8.83 		2.365 		12.588
v 6.5 		-1.67 		18.66
v 7.706 		-1.17 		17.934
v 7.044 		-0.728 		17.934
v 6.33 		-0.376 		17.934
v 11.866 		0.036 		11.305
v 11.011 		1.011 		11.305
v 7.696 		-6.99 		0.761
v 5.913 		-1.381 		18.66
v 7.794 		-6.5 		0.761
v 5.294 		-1.17 		18.66
v 2.536 		-9.536 		0.761
v 2.695 		-6 		19.914
v 4.653 		-1.043 		18.66
v 6.391 		-6.99 		0.341
v 3.01 		-9.696 		0.761
v 2.964 		-5.205 		19.914
v 2.87 		-5.347 		19.914
v 6.5 		-6.67 		0.341
v 2.794 		-5.5 		19.914
v 3.5 		-9.794 		0.761
v 2.739 		-5.662 		19.914
v 2.706 		-5.83 		19.914
v 6.566 		-6.338 		0.341
v 4 		-9.827 		0.761
v 5.576 		-0.12 		17.934
v 7.314 		-4.087 		19.239
v 1.947 		-4.424 		19.659
v 7.036 		-3.67 		19.239
v 6.706 		-3.294 		19.239
v 0.033 		-9.044 		1.34
v 1.759 		-4.706 		19.659
v 0.464 		-9.536 		1.34
v 7.314 		-7.913 		0.761
v 6.33 		-2.964 		19.239
v 1.609 		-5.01 		19.659
v 7.536 		-7.464 		0.761
v 0.956 		-9.967 		1.34
v 0.464 		-4.536 		19.239
v 0.964 		-8.33 		0.761
v 7.967 		-2.956 		18.66
v 6.241 		-7.294 		0.341
v 7.536 		-2.464 		18.66
v 5.913 		-2.686 		19.239
v 5.464 		-2.464 		19.239
v 5.13 		-6.653 		0.086
v 4.99 		-2.304 		19.239
v 5.206 		-6.5 		0.086
v 4.5 		-2.206 		19.239
v 5.261 		-6.338 		0.086
v 5.294 		-6.17 		0.086
v 5.576 		-3.947 		19.659
v 5.294 		-3.759 		19.659
v 4.99 		-3.609 		19.659
v 4.67 		-3.5 		19.659
v 4.653 		-7.13 		0.086
v 4.338 		-3.434 		19.659
v 4.795 		-7.036 		0.086
v 4.923 		-6.923 		0.086
v 5.036 		-6.795 		0.086
v 4 		-1 		18.66
v 3.347 		-1.043 		18.66
v 2.706 		-1.17 		18.66
v 2.087 		-1.381 		18.66
v 2.424 		-0.12 		17.934
v 5.576 		-8.053 		0.341
v 5.83 		-7.83 		0.341
v 6.053 		-7.576 		0.341
v 10.036 		1.866 		11.305
v 8.957 		2.586 		11.305
v 4.17 		-7.294 		0.086
v 4.338 		-7.261 		0.086
v 4.5 		-7.206 		0.086
v 11.934 		0.088 		10
v 11.071 		1.071 		10
v 10.088 		1.934 		10
v 9 		2.66 		10
v 11.866 		0.036 		8.695
v 11.011 		1.011 		8.695
v 1.294 		-8.706 		0.761
v 10.036 		1.866 		8.695
v 8.957 		2.586 		8.695
v 1.67 		-9.036 		0.761
v 11.663 		-0.12 		12.588
v 7.967 		0.871 		16.088
v 7.036 		1.33 		16.088
v 1.412 		-15.659 		10
v 1.5 		-10.33 		1.34
v 6.053 		1.663 		16.088
v 0.304 		-5.01 		19.239
v 2.087 		-10.619 		1.34
v 2.706 		-10.83 		1.34
v 3.347 		-10.957 		1.34
v 1.412 		-6 		19.659
v 1.5 		-5.33 		19.659
v 4 		-11 		1.34
v 1.434 		-5.662 		19.659
v 0.173 		-6 		19.239
v 0.206 		-5.5 		19.239
v 0.033 		-12.871 		3.912
v 3.077 		-6.923 		19.914
v 3.205 		-7.036 		19.914
v 3.347 		-7.13 		19.914
v 0.964 		-13.33 		3.912
v 1.947 		-13.663 		3.912
v 2.964 		-13.866 		3.912
v 4 		-13.934 		3.912
v 1.294 		-12.533 		2.929
v 2.706 		-6.17 		19.914
v 2.17 		-12.83 		2.929
v 2.739 		-6.338 		19.914
v 2.794 		-6.5 		19.914
v 2.87 		-6.653 		19.914
v 2.964 		-6.795 		19.914
v 3.077 		-13.011 		2.929
v 4 		-13.071 		2.929
v 3.5 		-7.206 		19.914
v 3.662 		-7.261 		19.914
v 3.83 		-7.294 		19.914
v 4 		-7.305 		19.914
v 2.17 		-7.83 		19.659
v -1.61 		-0.39 		16.088
v 2.424 		-8.053 		19.659
v -2.294 		-1.17 		16.088
v -2.871 		-2.033 		16.088
v -3.33 		-2.964 		16.088
v -3.663 		-3.947 		16.088
v -2.036 		-6.795 		2.066
v -2.871 		-0.728 		15
v -1.88 		-7.576 		2.066
v -3.5 		-1.67 		15
v 1.434 		-6.338 		19.659
v 1.5 		-6.67 		19.659
v -4.001 		-2.686 		15
v 1.609 		-6.99 		19.659
v 0.206 		-6.5 		19.239
v -1 		-6 		1.34
v -0.957 		-6.653 		1.34
v 0.304 		-6.99 		19.239
v -3.33 		-0.376 		13.827
v -0.83 		-7.294 		1.34
v -4.001 		-1.381 		13.827
v -0.619 		-7.913 		1.34
v 1.759 		-7.294 		19.659
v -3.663 		-0.12 		12.588
v 1.947 		-7.576 		19.659
v -0.83 		-4.706 		1.34
v 0.464 		-7.464 		19.239
v -0.957 		-5.347 		1.34
v 0.686 		-7.913 		19.239
v -4.365 		-3.759 		15
v -4.536 		-2.464 		13.827
v -4.924 		-3.609 		13.827
v -4.365 		-1.17 		12.588
v 8.33 		-8.5 		18.66
v 5.036 		1.866 		16.088
v 4 		-4.695 		0.086
v 3.83 		-4.706 		0.086
v -3.663 		-11.88 		7.412
v 7.314 		2.001 		15
v 3.662 		-4.739 		0.086
v 6.241 		2.365 		15
v 3.5 		-4.794 		0.086
v -4.001 		-10.619 		6.173
v 1.5 		-1.67 		18.66
v 5.13 		2.586 		15
v -3.33 		-11.624 		6.173
v 3.347 		-4.87 		0.086
v -4.001 		-9.314 		5
v 3.205 		-4.964 		0.086
v -3.5 		-10.33 		5
v 2.695 		-15.914 		10
v 3.077 		-5.077 		0.086
v -2.871 		-11.272 		5
v 4 		-16 		10
v -2.124 		-12.124 		5
v 7.536 		2.536 		13.827
v 6.391 		2.924 		13.827
v 5.206 		3.16 		13.827
v 2.17 		-4.17 		0.341
v 7.696 		2.924 		12.588
v 6.5 		3.33 		12.588
v 5.261 		3.577 		12.588
v 12.586 		-7.13 		15
v 4 		1.934 		16.088
v 12.66 		-6 		15
v 2.964 		1.866 		16.088
v 12.586 		-4.87 		15
v 13.16 		-7.206 		13.827
v 13.239 		-6 		13.827
v 4 		2.66 		15
v 2.87 		2.586 		15
v 13.16 		-4.794 		13.827
v 1.947 		1.663 		16.088
v 0.964 		1.33 		16.088
v 13.577 		-7.261 		12.588
v 0.033 		0.871 		16.088
v 13.659 		-6 		12.588
v 1.759 		2.365 		15
v 13.577 		-4.739 		12.588
v 0.686 		2.001 		15
v 4 		3.239 		13.827
v 11.663 		-8.053 		16.088
v 2.794 		3.16 		13.827
v -4.924 		-2.304 		12.588
v 11.866 		-7.036 		16.088
v 1.609 		2.924 		13.827
v 11.934 		-6 		16.088
v -5.33 		-3.5 		12.588
v 0.464 		2.536 		13.827
v 11.866 		-4.964 		16.088
v 4 		3.659 		12.588
v 2.739 		3.577 		12.588
v 1.5 		3.33 		12.588
v -3.934 		-6 		16.088
v -3.866 		-7.036 		16.088
v 0.304 		2.924 		12.588
v -3.663 		-8.053 		16.088
v 13.577 		-3.434 		11.305
v -3.866 		-4.964 		16.088
v 13.16 		-2.206 		11.305
v 7.794 		3.16 		11.305
v 12.586 		-1.043 		11.305
v 6.566 		3.577 		11.305
v 5.294 		3.83 		11.305
v 13.659 		-3.412 		10
v -4.586 		-7.13 		15
v 13.239 		-2.173 		10
v -4.66 		-6 		15
v 12.66 		-1 		10
v 7.827 		3.239 		10
v -4.586 		-4.87 		15
v 6.588 		3.659 		10
v 13.577 		-3.434 		8.695
v 5.305 		3.914 		10
v 13.16 		-2.206 		8.695
v 12.586 		-1.043 		8.695
v 7.794 		3.16 		8.695
v -5.239 		-6 		13.827
v -5.16 		-7.206 		13.827
v 6.566 		3.577 		8.695
v 0.956 		-2.033 		18.66
v 8.83 		-9.706 		17.934
v 9.272 		-9.044 		17.934
v -5.16 		-4.794 		13.827
v 9.624 		-8.33 		17.934
v -5.577 		-7.261 		12.588
v 10.124 		-9.536 		17.071
v -5.659 		-6 		12.588
v 10.533 		-8.706 		17.071
v -5.577 		-4.739 		12.588
v 13.83 		-7.294 		11.305
v 13.914 		-6 		11.305
v 8.305 		-10.305 		17.934
v 13.83 		-4.706 		11.305
v 8.305 		-11.61 		17.071
v 9 		-11 		17.071
v 9.61 		-10.305 		17.071
v 13.914 		-7.305 		10
v -5.33 		-8.5 		7.412
v 14 		-6 		10
v 0.206 		-15.16 		8.695
v -4.924 		-9.696 		7.412
v 13.914 		-4.695 		10
v 1.67 		-0.376 		17.934
v 1.434 		-15.577 		8.695
v -4.365 		-10.83 		7.412
v 2.706 		-15.83 		8.695
v 0.956 		-0.728 		17.934
v 13.83 		-7.294 		8.695
v 4 		-15.914 		8.695
v 5.294 		3.83 		8.695
v 0.294 		-1.17 		17.934
v -4.924 		-8.391 		6.173
v -4.536 		-9.536 		6.173
v -4.365 		-8.241 		5
v 13.33 		-3.5 		7.412
v 4 		3.914 		11.305
v 12.924 		-2.304 		7.412
v 2.706 		3.83 		11.305
v 4 		-2.173 		19.239
v 12.365 		-1.17 		7.412
v 4 		-6 		0
v 1.434 		3.577 		11.305
v 3.5 		-2.206 		19.239
v 0.206 		3.16 		11.305
v 12.924 		-3.609 		6.173
v 12.536 		-2.464 		6.173
v -2.83 		-12.83 		7.412
v 3.01 		-2.304 		19.239
v 2.536 		-2.464 		19.239
v -1.88 		-13.663 		7.412
v 2.087 		-2.686 		19.239
v -0.83 		-14.365 		7.412
v 12.365 		-3.759 		5
v -2.533 		-12.533 		6.173
v 4 		4 		10
v -1.624 		-13.33 		6.173
v 2.695 		3.914 		10
v 11.663 		-0.12 		7.412
v 4 		-3.412 		19.659
v 1.412 		3.659 		10
v -0.619 		-14.001 		6.173
v 0.173 		3.239 		10
v 12.001 		-1.381 		6.173
v 3.662 		-3.434 		19.659
v 3.33 		-3.5 		19.659
v 3.01 		-3.609 		19.659
v 2.706 		-3.759 		19.659
v 2.424 		-3.947 		19.659
v 1.67 		-2.964 		19.239
v 1.294 		-3.294 		19.239
v 0.964 		-3.67 		19.239
v 0.686 		-4.087 		19.239
v 0.464 		-2.464 		18.66
v 0.033 		-2.956 		18.66
v 6.391 		-5.01 		19.659
v 6.241 		-4.706 		19.659
v 7.696 		-5.01 		19.239
v 7.536 		-4.536 		19.239
v 6.588 		-6 		19.659
v 6.566 		-5.662 		19.659
v -1.272 		-12.871 		5
v -0.33 		-13.5 		5
v 6.5 		-5.33 		19.659
v 7.827 		-6 		19.239
v 7.794 		-5.5 		19.239
v -3.33 		-9.036 		3.912
v -2.871 		-9.967 		3.912
v -2.533 		-8.706 		2.929
v -2.124 		-9.536 		2.929
v -1.624 		-8.33 		2.066
v -1.272 		-9.044 		2.066
v 6.053 		-4.424 		19.659
v -0.83 		-9.706 		2.066
v 5.83 		-4.17 		19.659
v -2.294 		-10.83 		3.912
v -1.61 		-11.61 		3.912
v 4.923 		-5.077 		19.914
v 4.795 		-4.964 		19.914
v 4.653 		-4.87 		19.914
v 4.5 		-4.794 		19.914
v 4.338 		-4.739 		19.914
v -1.61 		-10.305 		2.929
v 4.17 		-4.706 		19.914
v -1 		-11 		2.929
v -0.305 		-11.61 		2.929
v -0.305 		-10.305 		2.066
v 5.305 		-6 		19.914
v 5.294 		-5.83 		19.914
v 5.261 		-5.662 		19.914
v 5.206 		-5.5 		19.914
v 5.13 		-5.347 		19.914
v -0.33 		-8.5 		1.34
v -0.83 		-12.294 		3.912
v 4 		3.914 		8.695
v 2.706 		3.83 		8.695
v 5.036 		-5.205 		19.914
v 1.434 		3.577 		8.695
v 0.206 		3.16 		8.695
v 6.391 		-6.99 		19.659
v 6.5 		-6.67 		19.659
v 6.566 		-6.338 		19.659
v 6.33 		-9.036 		19.239
v 6.706 		-8.706 		19.239
v 7.036 		-8.33 		19.239
v 10.83 		0.83 		7.412
v 9.88 		1.663 		7.412
v 7.044 		-9.967 		18.66
v 7.536 		-9.536 		18.66
v 8.83 		2.365 		7.412
v 7.967 		-9.044 		18.66
v 11.33 		-0.376 		6.173
v 10.533 		0.533 		6.173
v 12.001 		-2.686 		5
v 9.624 		1.33 		6.173
v 11.5 		-1.67 		5
v 7.696 		-6.99 		19.239
v 7.794 		-6.5 		19.239
v 10.871 		-0.728 		5
v 8.619 		2.001 		6.173
v 10.124 		0.124 		5
v 6.241 		-7.294 		19.659
v 9.272 		0.871 		5
v 8.33 		1.5 		5
v 7.314 		-7.913 		19.239
v 7.536 		-7.464 		19.239
v 13.577 		-7.261 		7.412
v 13.659 		-6 		7.412
v 4.653 		-7.13 		19.914
v 13.577 		-4.739 		7.412
v 4.795 		-7.036 		19.914
v 4.923 		-6.923 		19.914
v 5.036 		-6.795 		19.914
v 5.13 		-6.653 		19.914
v 5.206 		-6.5 		19.914
v 5.261 		-6.338 		19.914
v 5.294 		-6.17 		19.914
v 13.16 		-7.206 		6.173
v 13.239 		-6 		6.173
v 13.16 		-4.794 		6.173
v 12.586 		-7.13 		5
v 4.17 		-7.294 		19.914
v 4.338 		-7.261 		19.914
v 12.66 		-6 		5
v 4.5 		-7.206 		19.914
v 12.586 		-4.87 		5
v 5.576 		-8.053 		19.659
v 5.83 		-7.83 		19.659
v 6.053 		-7.576 		19.659
v 10.871 		-2.033 		3.912
v 10.294 		-1.17 		3.912
v 9.61 		-0.39 		3.912
v 4.338 		-8.566 		19.659
v 9.61 		-1.695 		2.929
v 4.67 		-8.5 		19.659
v 9 		-1 		2.929
v 4.99 		-8.391 		19.659
v 8.305 		-0.39 		2.929
v 5.294 		-8.241 		19.659
v 8.305 		-1.695 		2.066
v 4.5 		-9.794 		19.239
v 11.663 		-3.947 		3.912
v 4.99 		-9.696 		19.239
v 11.33 		-2.964 		3.912
v 5.464 		-9.536 		19.239
v 5.913 		-9.314 		19.239
v 10.533 		-3.294 		2.929
v 10.124 		-2.464 		2.929
v 6.5 		-10.33 		18.66
v 6.33 		-11.624 		17.934
v 7.044 		-11.272 		17.934
v 7.706 		-10.83 		17.934
v 7.536 		-12.124 		17.071
v 4.653 		-10.957 		18.66
v 5.294 		-10.83 		18.66
v 5.913 		-10.619 		18.66
v 4.795 		-12.036 		17.934
v 5.576 		-11.88 		17.934
v 8.83 		0.294 		3.912
v 4.923 		-13.011 		17.071
v 5.83 		-12.83 		17.071
v 6.706 		-12.533 		17.071
v 7.696 		2.924 		7.412
v 6.5 		3.33 		7.412
v 5.261 		3.577 		7.412
v 2.706 		-8.241 		19.659
v 7.536 		2.536 		6.173
v 3.01 		-8.391 		19.659
v 6.391 		2.924 		6.173
v 3.33 		-8.5 		19.659
v 3.662 		-8.566 		19.659
v 5.206 		3.16 		6.173
v -4.586 		-1.043 		11.305
v 4 		-8.588 		19.659
v -5.16 		-2.206 		11.305
v -5.577 		-3.434 		11.305
v -4.66 		-1 		10
v 7.314 		2.001 		5
v -5.239 		-2.173 		10
v 6.241 		2.365 		5
v 2.087 		-9.314 		19.239
v -5.659 		-3.412 		10
v 2.536 		-9.536 		19.239
v 5.13 		2.586 		5
v 3.01 		-9.696 		19.239
v 3.5 		-9.794 		19.239
v 4 		-9.827 		19.239
v -4.586 		-1.043 		8.695
v -5.16 		-2.206 		8.695
v -5.577 		-3.434 		8.695
v 4 		3.659 		7.412
v 2.739 		3.577 		7.412
v 0.964 		-8.33 		19.239
v 1.294 		-8.706 		19.239
v 1.67 		-9.036 		19.239
v 1.5 		3.33 		7.412
v -5.83 		-7.294 		11.305
v -5.914 		-6 		11.305
v 0.304 		2.924 		7.412
v -5.83 		-4.706 		11.305
v 0.033 		-9.044 		18.66
v 4 		3.239 		6.173
v 2.794 		3.16 		6.173
v -6 		-6 		10
v -5.914 		-7.305 		10
v 4 		-4.695 		19.914
v 1.609 		2.924 		6.173
v 3.83 		-4.706 		19.914
v 3.662 		-4.739 		19.914
v 0.464 		2.536 		6.173
v 3.5 		-4.794 		19.914
v 3.347 		-4.87 		19.914
v 3.205 		-4.964 		19.914
v 13.914 		-6 		8.695
v 3.077 		-5.077 		19.914
v -5.914 		-4.695 		10
v 13.83 		-4.706 		8.695
v -5.83 		-7.294 		8.695
v -5.914 		-6 		8.695
v -5.83 		-4.706 		8.695
v 12.365 		-8.241 		15
v 12.536 		-9.536 		13.827
v 12.924 		-8.391 		13.827
v 0.464 		-9.536 		18.66
v 0.956 		-9.967 		18.66
v -3.33 		-9.036 		16.088
v 12.365 		-10.83 		12.588
v 12.924 		-9.696 		12.588
v 13.33 		-8.5 		12.588
v 2.087 		-10.619 		18.66
v 2.706 		-10.83 		18.66
v 3.347 		-10.957 		18.66
v 10.871 		-9.967 		16.088
v 11.33 		-9.036 		16.088
v 4 		-11 		18.66
v 2.424 		-11.88 		17.934
v 2.17 		-4.17 		19.659
v 12.001 		-9.314 		15
v 9.624 		-3.67 		2.066
v 9.272 		-2.956 		2.066
v 8.83 		-2.294 		2.066
v 9.61 		-11.61 		16.088
v 10.294 		-10.83 		16.088
v 8.619 		-4.087 		1.34
v 10.124 		-12.124 		15
v 8.33 		-3.5 		1.34
v 10.871 		-11.272 		15
v 11.5 		-10.33 		15
v 11.934 		-6 		3.912
v 11.866 		-4.964 		3.912
v 11.33 		-11.624 		13.827
v 3.205 		-12.036 		17.934
v 12.001 		-10.619 		13.827
v 4 		-12.088 		17.934
v 11.071 		-6 		2.929
v 11.663 		-11.88 		12.588
v 11.011 		-5.077 		2.929
v 10.83 		-4.17 		2.929
v 10.088 		-6 		2.066
v 8.83 		-12.294 		16.088
v 10.036 		-5.205 		2.066
v 8.33 		-13.5 		15
v 9.272 		-12.871 		15
v 9.88 		-4.424 		2.066
v 8.619 		-14.001 		13.827
v 1.5 		-10.33 		18.66
v 9.624 		-13.33 		13.827
v 0.294 		-10.83 		17.934
v 10.533 		-12.533 		13.827
v 0.956 		-11.272 		17.934
v 1.67 		-11.624 		17.934
v 8.83 		-14.365 		12.588
v 0.464 		-12.124 		17.071
v 9.88 		-13.663 		12.588
v 10.83 		-12.83 		12.588
v 11.663 		-8.053 		3.912
v 11.866 		-7.036 		3.912
v 1.294 		-12.533 		17.071
v 12.586 		-10.957 		11.305
v 10.83 		-7.83 		2.929
v 13.16 		-9.794 		11.305
v 2.17 		-12.83 		17.071
v 13.577 		-8.566 		11.305
v 11.011 		-6.923 		2.929
v 3.077 		-13.011 		17.071
v 4 		-13.071 		17.071
v 12.66 		-11 		10
v 13.239 		-9.827 		10
v 13.659 		-8.588 		10
v 4 		2.66 		5
v 2.87 		2.586 		5
v 1.759 		2.365 		5
v 0.686 		2.001 		5
v 12.586 		-10.957 		8.695
v -0.305 		-1.695 		17.934
v -0.305 		-0.39 		17.071
v 13.16 		-9.794 		8.695
v -1 		-1 		17.071
v 13.577 		-8.566 		8.695
v -1.61 		-1.695 		17.071
v 7.967 		0.871 		3.912
v 7.036 		1.33 		3.912
v -0.33 		-3.5 		18.66
v -0.619 		-4.087 		18.66
v 11.866 		-12.036 		11.305
v -0.83 		-2.294 		17.934
v 7.536 		0.124 		2.929
v -1.272 		-2.956 		17.934
v 11.934 		-12.088 		10
v -1.624 		-3.67 		17.934
v 6.706 		0.533 		2.929
v 11.866 		-12.036 		8.695
v -2.124 		-2.464 		17.071
v 6.053 		1.663 		3.912
v -2.533 		-3.294 		17.071
v 5.036 		1.866 		3.912
v 8.957 		-14.586 		11.305
v 5.83 		0.83 		2.929
v 10.036 		-13.866 		11.305
v 4.923 		1.011 		2.929
v 11.011 		-13.011 		11.305
v -1 		-6 		18.66
v -0.83 		-4.706 		18.66
v 9 		-14.66 		10
v -0.957 		-5.347 		18.66
v 10.088 		-13.934 		10
v 11.071 		-13.071 		10
v 8.957 		-14.586 		8.695
v -1.88 		-4.424 		17.934
v 10.036 		-13.866 		8.695
v -2.036 		-5.205 		17.934
v 11.011 		-13.011 		8.695
v -2.088 		-6 		17.934
v -3.071 		-6 		17.071
v -2.83 		-4.17 		17.071
v -3.011 		-5.077 		17.071
v 5.036 		-13.866 		16.088
v 6.053 		-13.663 		16.088
v 7.036 		-13.33 		16.088
v 7.967 		-12.871 		16.088
v 5.13 		-14.586 		15
v -0.83 		-7.294 		18.66
v 6.241 		-14.365 		15
v 7.314 		-14.001 		15
v 5.206 		-15.16 		13.827
v 6.391 		-14.924 		13.827
v 7.536 		-14.536 		13.827
v 5.261 		-15.577 		12.588
v 6.5 		-15.33 		12.588
v 7.696 		-14.924 		12.588
v 2.695 		-6 		0.086
v 2.964 		-5.205 		0.086
v 2.87 		-5.347 		0.086
v 2.794 		-5.5 		0.086
v 2.964 		-13.866 		16.088
v 4 		-13.934 		16.088
v 2.739 		-5.662 		0.086
v 2.87 		-14.586 		15
v 4 		-14.66 		15
v 2.706 		-5.83 		0.086
v 0.033 		-12.871 		16.088
v 0.964 		-13.33 		16.088
v 9.88 		-7.576 		2.066
v 10.036 		-6.795 		2.066
v 0.464 		-4.536 		0.761
v 0.304 		-5.01 		0.761
v 8.619 		-7.913 		1.34
v 1.947 		-4.424 		0.341
v 8.83 		-7.294 		1.34
v 1.759 		-4.706 		0.341
v 1.609 		-5.01 		0.341
v 8.957 		-6.653 		1.34
v 9 		-6 		1.34
v 8.957 		-5.347 		1.34
v 8.83 		-4.706 		1.34
v 0.173 		-6 		0.761
v 4.795 		0.036 		2.066
v 0.206 		-5.5 		0.761
v 1.412 		-6 		0.341
v 1.5 		-5.33 		0.341
v 4 		1.934 		3.912
v 1.434 		-5.662 		0.341
v 2.964 		1.866 		3.912
v 4 		1.071 		2.929
v 7.706 		-1.17 		2.066
v 3.077 		1.011 		2.929
v 2.17 		0.83 		2.929
v 7.044 		-0.728 		2.066
v 4 		0.088 		2.066
v 6.33 		-0.376 		2.066
v 3.205 		0.036 		2.066
v 5.576 		-0.12 		2.066
v 3.077 		-6.923 		0.086
v 3.205 		-7.036 		0.086
v 3.347 		-7.13 		0.086
v 7.044 		-2.033 		1.34
v 1.947 		1.663 		3.912
v 6.5 		-1.67 		1.34
v 0.964 		1.33 		3.912
v 0.033 		0.871 		3.912
v 5.913 		-1.381 		1.34
v 1.294 		0.533 		2.929
v 5.294 		-1.17 		1.34
v 0.464 		0.124 		2.929
v 4.653 		-1.043 		1.34
v 2.706 		-6.17 		0.086
v 2.739 		-6.338 		0.086
v 2.794 		-6.5 		0.086
v -0.83 		0.294 		16.088
v 2.87 		-6.653 		0.086
v -0.33 		1.5 		15
v 2.964 		-6.795 		0.086
v -1.272 		0.871 		15
v -2.124 		0.124 		15
v -1.624 		1.33 		13.827
v 2.17 		-7.83 		0.341
v 2.424 		-8.053 		0.341
v 7.967 		-2.956 		1.34
v 7.536 		-2.464 		1.34
v 3.5 		-7.206 		0.086
v 7.314 		-4.087 		0.761
v 7.036 		-3.67 		0.761
v 3.662 		-7.261 		0.086
v 6.706 		-3.294 		0.761
v 3.83 		-7.294 		0.086
v 6.33 		-2.964 		0.761
v 4 		-7.305 		0.086
v 5.913 		-2.686 		0.761
v 0.206 		-6.5 		0.761
v 5.464 		-2.464 		0.761
v 0.304 		-6.99 		0.761
v 4.99 		-2.304 		0.761
v 1.434 		-6.338 		0.341
v 4.5 		-2.206 		0.761
v 1.5 		-6.67 		0.341
v 1.609 		-6.99 		0.341
v 5.576 		-3.947 		0.341
v 5.294 		-3.759 		0.341
v 0.464 		-7.464 		0.761
v 4.99 		-3.609 		0.341
v 0.686 		-7.913 		0.761
v 4.67 		-3.5 		0.341
v 4.338 		-3.434 		0.341
v 1.759 		-7.294 		0.341
v 1.947 		-7.576 		0.341
v 12.365 		-10.83 		7.412
v 12.924 		-9.696 		7.412
v 13.33 		-8.5 		7.412
v 2.424 		-0.12 		2.066
v 12.536 		-9.536 		6.173
v 1.67 		-0.376 		2.066
v 12.924 		-8.391 		6.173
v 0.956 		-0.728 		2.066
v 0.294 		-1.17 		2.066
v 12.365 		-8.241 		5
v 4 		-1 		1.34
v 11.663 		-11.88 		7.412
v 3.347 		-1.043 		1.34
v 11.33 		-11.624 		6.173
v 2.706 		-1.17 		1.34
v 12.001 		-10.619 		6.173
v 2.087 		-1.381 		1.34
v 1.5 		-1.67 		1.34
v 0.956 		-2.033 		1.34
v 4 		-2.173 		0.761
v 3.5 		-2.206 		0.761
v 3.01 		-2.304 		0.761
v 2.536 		-2.464 		0.761
v 2.087 		-2.686 		0.761
v 4 		-3.412 		0.341
v 3.662 		-3.434 		0.341
v 3.33 		-3.5 		0.341
v 3.01 		-3.609 		0.341
v 2.706 		-3.759 		0.341
v 2.424 		-3.947 		0.341
v 0.464 		-2.464 		1.34
v 0.033 		-2.956 		1.34
v 1.67 		-2.964 		0.761
v 1.294 		-3.294 		0.761
v 0.964 		-3.67 		0.761
v 0.686 		-4.087 		0.761
v 7.696 		-5.01 		0.761
v 7.536 		-4.536 		0.761
v 6.391 		-5.01 		0.341
v 6.241 		-4.706 		0.341
v 7.827 		-6 		0.761
v 7.794 		-5.5 		0.761
v 10.124 		-12.124 		5
v 10.871 		-11.272 		5
v 11.5 		-10.33 		5
v 12.001 		-9.314 		5
v 8.83 		-14.365 		7.412
v 9.88 		-13.663 		7.412
v 10.83 		-12.83 		7.412
v 8.619 		-14.001 		6.173
v 9.624 		-13.33 		6.173
v 10.533 		-12.533 		6.173
v 8.33 		-13.5 		5
v 9.272 		-12.871 		5
v 10.871 		-9.967 		3.912
v 11.33 		-9.036 		3.912
v 10.124 		-9.536 		2.929
v 10.533 		-8.706 		2.929
v 8.83 		-9.706 		2.066
v 9.272 		-9.044 		2.066
v 9.624 		-8.33 		2.066
v 9.61 		-11.61 		3.912
v 8.305 		-11.61 		2.929
# 1106 vertices

g group_0_40919

usemtl color_40919
s 0

f 1 	6 	2
f 5 	6 	1
f 3 	2 	7
f 6 	7 	2
f 18 	3 	7
f 8 	5 	4
f 20 	7 	6
f 5 	9 	6
f 8 	9 	5
f 9 	20 	6
f 9 	23 	20
f 8 	16 	10
f 10 	9 	8
f 10 	23 	9
f 11 	13 	4
f 12 	13 	11
f 8 	4 	13
f 14 	15 	12
f 12 	15 	13
f 13 	16 	8
f 15 	16 	13
f 31 	16 	15
f 295 	17 	959
f 3 	18 	17
f 17 	18 	19
f 18 	21 	22
f 18 	22 	19
f 18 	7 	21
f 21 	7 	20
f 21 	25 	22
f 21 	24 	25
f 20 	24 	21
f 20 	23 	24
f 10 	38 	23
f 24 	40 	25
f 292 	25 	40
f 26 	10 	16
f 31 	26 	16
f 27 	26 	31
f 113 	26 	27
f 28 	27 	34
f 29 	30 	14
f 29 	33 	30
f 32 	33 	29
f 14 	30 	15
f 30 	31 	15
f 33 	34 	30
f 30 	34 	31
f 34 	27 	31
f 803 	35 	32
f 35 	36 	32
f 32 	36 	33
f 33 	37 	34
f 36 	37 	33
f 37 	28 	34
f 36 	584 	37
f 10 	26 	38
f 39 	24 	23
f 39 	23 	38
f 40 	24 	39
f 47 	51 	48
f 47 	50 	51
f 48 	52 	49
f 48 	51 	52
f 50 	54 	51
f 50 	53 	54
f 51 	60 	52
f 60 	51 	54
f 58 	61 	59
f 52 	60 	1096
f 59 	61 	1013
f 53 	150 	152
f 53 	152 	54
f 54 	153 	60
f 61 	70 	62
f 54 	152 	153
f 61 	68 	70
f 67 	588 	585
f 58 	68 	61
f 66 	68 	58
f 63 	69 	71
f 63 	71 	64
f 64 	71 	74
f 64 	74 	65
f 70 	72 	62
f 65 	75 	67
f 65 	74 	75
f 67 	75 	50
f 50 	75 	53
f 67 	50 	47
f 77 	80 	68
f 79 	71 	69
f 82 	72 	70
f 69 	78 	79
f 436 	437 	73
f 66 	77 	68
f 69 	620 	78
f 723 	707 	73
f 76 	77 	66
f 709 	710 	73
f 71 	79 	81
f 68 	80 	70
f 710 	711 	73
f 80 	82 	70
f 711 	712 	73
f 71 	81 	74
f 74 	81 	83
f 712 	713 	73
f 713 	714 	73
f 74 	83 	75
f 714 	715 	73
f 84 	86 	76
f 53 	75 	83
f 666 	73 	715
f 667 	73 	666
f 78 	421 	422
f 76 	86 	77
f 89 	80 	77
f 668 	73 	667
f 78 	422 	79
f 669 	73 	668
f 77 	86 	89
f 670 	73 	669
f 89 	90 	80
f 424 	83 	81
f 91 	88 	19
f 80 	90 	82
f 657 	73 	656
f 91 	19 	22
f 73 	657 	658
f 91 	93 	88
f 658 	659 	73
f 659 	660 	73
f 88 	93 	85
f 95 	144 	146
f 95 	146 	96
f 96 	149 	97
f 92 	160 	97
f 92 	97 	98
f 97 	99 	98
f 100 	101 	43
f 1102 	101 	45
f 99 	102 	103
f 99 	103 	100
f 104 	101 	100
f 104 	100 	103
f 351 	45 	101
f 111 	107 	106
f 107 	112 	108
f 107 	111 	112
f 108 	102 	149
f 105 	110 	106
f 105 	109 	110
f 106 	110 	111
f 102 	108 	383
f 112 	383 	108
f 384 	102 	383
f 109 	389 	110
f 113 	38 	26
f 115 	40 	39
f 114 	39 	38
f 114 	38 	113
f 39 	114 	115
f 27 	116 	113
f 28 	116 	27
f 113 	116 	117
f 113 	117 	114
f 114 	118 	115
f 114 	117 	118
f 117 	611 	118
f 63 	579 	118
f 120 	122 	119
f 120 	126 	122
f 124 	126 	120
f 126 	127 	122
f 125 	128 	322
f 128 	129 	343
f 128 	473 	129
f 920 	55 	56
f 124 	229 	126
f 227 	229 	124
f 55 	131 	56
f 402 	403 	123
f 403 	406 	125
f 130 	293 	132
f 130 	287 	293
f 55 	137 	131
f 132 	297 	134
f 136 	137 	55
f 128 	406 	473
f 132 	293 	297
f 473 	502 	129
f 111 	373 	112
f 139 	140 	378
f 129 	141 	121
f 129 	502 	141
f 121 	141 	139
f 139 	143 	140
f 141 	143 	139
f 144 	95 	94
f 144 	94 	142
f 143 	145 	140
f 149 	96 	146
f 99 	97 	149
f 100 	43 	98
f 98 	99 	100
f 142 	105 	106
f 142 	106 	144
f 144 	107 	146
f 512 	514 	147
f 144 	106 	107
f 146 	107 	108
f 147 	514 	148
f 146 	108 	149
f 149 	102 	99
f 53 	83 	150
f 60 	155 	1096
f 60 	153 	155
f 150 	158 	152
f 156 	159 	151
f 150 	157 	158
f 152 	158 	160
f 152 	160 	153
f 153 	92 	155
f 153 	160 	92
f 163 	167 	84
f 84 	167 	86
f 156 	302 	159
f 169 	89 	86
f 157 	94 	95
f 157 	95 	158
f 95 	96 	158
f 158 	96 	160
f 160 	96 	97
f 164 	166 	161
f 163 	177 	167
f 175 	177 	163
f 161 	166 	162
f 166 	170 	162
f 164 	180 	166
f 167 	169 	86
f 169 	119 	89
f 162 	170 	358
f 179 	120 	169
f 171 	172 	165
f 170 	151 	358
f 169 	120 	119
f 154 	156 	170
f 170 	156 	151
f 203 	178 	164
f 167 	179 	169
f 177 	179 	167
f 164 	178 	180
f 180 	154 	166
f 171 	408 	172
f 180 	263 	154
f 170 	166 	154
f 173 	409 	410
f 173 	410 	174
f 174 	413 	176
f 181 	182 	175
f 410 	413 	174
f 175 	182 	177
f 188 	271 	273
f 179 	177 	183
f 182 	183 	177
f 124 	179 	183
f 180 	262 	263
f 227 	124 	183
f 124 	120 	179
f 186 	188 	200
f 188 	273 	178
f 207 	138 	135
f 660 	662 	73
f 662 	804 	73
f 93 	194 	85
f 804 	806 	73
f 806 	807 	73
f 22 	25 	196
f 810 	811 	73
f 196 	91 	22
f 91 	199 	93
f 91 	196 	199
f 190 	200 	192
f 93 	201 	194
f 334 	335 	73
f 190 	197 	200
f 335 	337 	73
f 200 	203 	192
f 199 	201 	93
f 194 	201 	204
f 337 	339 	73
f 339 	340 	73
f 340 	330 	73
f 330 	426 	73
f 428 	73 	426
f 429 	73 	428
f 202 	198 	208
f 119 	122 	135
f 207 	135 	122
f 209 	1035 	202
f 207 	210 	138
f 205 	1025 	206
f 202 	208 	209
f 138 	210 	191
f 122 	127 	207
f 207 	213 	210
f 207 	127 	213
f 205 	1023 	1025
f 217 	220 	221
f 217 	221 	218
f 220 	217 	219
f 221 	591 	218
f 191 	210 	222
f 219 	191 	222
f 222 	220 	219
f 221 	220 	223
f 222 	224 	220
f 220 	224 	223
f 210 	213 	225
f 222 	210 	225
f 225 	224 	222
f 251 	283 	224
f 223 	224 	283
f 225 	213 	252
f 252 	213 	241
f 136 	535 	137
f 230 	133 	940
f 230 	940 	131
f 133 	230 	232
f 232 	228 	133
f 232 	234 	228
f 226 	235 	227
f 233 	235 	226
f 232 	242 	234
f 234 	242 	244
f 236 	230 	131
f 131 	137 	236
f 231 	237 	233
f 232 	230 	238
f 236 	238 	230
f 237 	246 	233
f 242 	232 	238
f 233 	246 	235
f 1052 	1074 	237
f 229 	239 	126
f 229 	245 	239
f 239 	127 	126
f 239 	241 	127
f 241 	213 	127
f 235 	243 	227
f 235 	247 	243
f 242 	3 	244
f 227 	243 	229
f 234 	244 	240
f 229 	243 	245
f 243 	248 	245
f 247 	248 	243
f 247 	235 	246
f 249 	250 	247
f 247 	250 	248
f 246 	249 	247
f 225 	251 	224
f 252 	251 	225
f 254 	241 	239
f 182 	226 	183
f 226 	227 	183
f 998 	255 	181
f 181 	255 	182
f 182 	255 	226
f 255 	998 	231
f 1002 	231 	998
f 231 	233 	255
f 255 	233 	226
f 73 	429 	430
f 256 	257 	258
f 257 	259 	260
f 259 	538 	260
f 257 	260 	258
f 258 	260 	261
f 538 	259 	536
f 709 	73 	707
f 262 	266 	263
f 194 	204 	195
f 154 	264 	156
f 263 	264 	154
f 73 	430 	431
f 431 	418 	73
f 25 	292 	196
f 264 	302 	156
f 266 	262 	265
f 263 	304 	264
f 239 	245 	254
f 241 	254 	270
f 254 	278 	270
f 270 	252 	241
f 270 	253 	252
f 186 	528 	271
f 252 	253 	251
f 267 	276 	268
f 267 	274 	276
f 277 	922 	269
f 178 	273 	262
f 273 	281 	265
f 275 	254 	245
f 273 	265 	262
f 245 	248 	275
f 268 	277 	269
f 262 	180 	178
f 268 	276 	277
f 275 	278 	254
f 270 	272 	253
f 279 	274 	492
f 278 	272 	270
f 528 	256 	271
f 274 	279 	280
f 271 	256 	281
f 192 	203 	193
f 256 	258 	281
f 193 	164 	161
f 274 	280 	276
f 203 	164 	193
f 276 	280 	282
f 271 	281 	273
f 466 	278 	275
f 276 	282 	277
f 197 	186 	200
f 185 	186 	197
f 282 	926 	277
f 188 	203 	200
f 283 	284 	223
f 188 	178 	203
f 279 	47 	48
f 283 	291 	284
f 279 	48 	280
f 280 	49 	282
f 286 	281 	258
f 280 	48 	49
f 258 	261 	286
f 283 	251 	288
f 281 	286 	265
f 253 	288 	251
f 265 	290 	266
f 704 	285 	289
f 294 	199 	196
f 240 	244 	295
f 196 	292 	294
f 303 	289 	285
f 199 	294 	298
f 238 	1 	2
f 242 	238 	2
f 201 	199 	298
f 3 	242 	2
f 305 	296 	289
f 201 	298 	300
f 244 	3 	17
f 134 	297 	299
f 244 	17 	295
f 296 	305 	197
f 296 	197 	190
f 201 	300 	204
f 267 	204 	300
f 292 	307 	404
f 292 	404 	294
f 294 	489 	298
f 208 	198 	309
f 266 	304 	263
f 306 	264 	304
f 300 	492 	274
f 305 	289 	303
f 300 	274 	267
f 304 	313 	306
f 307 	292 	40
f 302 	264 	306
f 306 	308 	302
f 197 	305 	185
f 266 	312 	304
f 303 	310 	311
f 312 	313 	304
f 306 	313 	314
f 314 	308 	306
f 303 	311 	305
f 305 	311 	185
f 313 	318 	314
f 316 	318 	313
f 523 	311 	310
f 311 	525 	185
f 311 	523 	525
f 312 	316 	313
f 315 	316 	312
f 317 	321 	319
f 320 	321 	317
f 319 	322 	326
f 321 	322 	319
f 159 	320 	151
f 321 	320 	123
f 320 	159 	123
f 123 	125 	321
f 321 	125 	322
f 323 	391 	392
f 323 	392 	324
f 329 	189 	333
f 409 	333 	338
f 325 	336 	341
f 326 	322 	343
f 322 	128 	343
f 325 	341 	327
f 326 	343 	328
f 327 	341 	130
f 216 	184 	187
f 331 	328 	121
f 216 	187 	329
f 343 	121 	328
f 121 	139 	331
f 335 	353 	337
f 187 	189 	329
f 337 	412 	339
f 333 	189 	205
f 353 	412 	337
f 339 	414 	340
f 333 	205 	338
f 343 	129 	121
f 412 	414 	339
f 338 	205 	206
f 340 	411 	330
f 338 	206 	342
f 414 	411 	340
f 342 	109 	105
f 342 	206 	109
f 368 	341 	336
f 101 	104 	351
f 353 	335 	349
f 354 	965 	45
f 45 	351 	354
f 630 	631 	345
f 349 	345 	631
f 354 	336 	325
f 103 	385 	104
f 162 	358 	344
f 384 	385 	103
f 344 	358 	346
f 346 	360 	347
f 104 	385 	351
f 358 	360 	346
f 351 	359 	332
f 347 	360 	317
f 360 	320 	317
f 347 	317 	352
f 351 	332 	354
f 317 	319 	352
f 332 	336 	354
f 358 	151 	360
f 151 	320 	360
f 362 	370 	361
f 367 	332 	365
f 352 	319 	361
f 319 	326 	361
f 332 	367 	336
f 361 	326 	362
f 362 	328 	364
f 368 	336 	367
f 326 	328 	362
f 328 	331 	364
f 364 	331 	366
f 368 	287 	341
f 341 	287 	130
f 370 	371 	658
f 352 	361 	369
f 370 	369 	361
f 371 	370 	362
f 362 	364 	371
f 371 	364 	372
f 377 	384 	376
f 372 	366 	374
f 364 	366 	372
f 331 	378 	366
f 331 	139 	378
f 382 	380 	379
f 377 	376 	600
f 378 	140 	379
f 382 	379 	140
f 140 	145 	382
f 103 	102 	384
f 145 	147 	382
f 315 	386 	316
f 359 	351 	385
f 324 	386 	315
f 386 	387 	316
f 386 	394 	387
f 316 	387 	318
f 388 	389 	109
f 387 	539 	318
f 110 	390 	111
f 110 	389 	390
f 386 	324 	393
f 392 	393 	324
f 390 	373 	111
f 386 	393 	394
f 112 	375 	383
f 112 	373 	375
f 376 	383 	375
f 383 	376 	384
f 385 	384 	377
f 393 	399 	394
f 385 	377 	363
f 385 	363 	359
f 359 	365 	332
f 365 	359 	363
f 391 	396 	392
f 265 	286 	290
f 391 	395 	396
f 357 	397 	348
f 312 	266 	290
f 396 	398 	392
f 392 	398 	393
f 348 	397 	350
f 350 	400 	355
f 398 	399 	393
f 397 	400 	350
f 400 	216 	355
f 400 	1015 	216
f 395 	684 	396
f 405 	216 	329
f 684 	685 	396
f 1043 	357 	1039
f 398 	688 	399
f 397 	1015 	400
f 402 	123 	159
f 1015 	184 	216
f 159 	302 	402
f 307 	40 	115
f 125 	123 	403
f 307 	583 	404
f 355 	405 	168
f 349 	356 	353
f 355 	216 	405
f 631 	356 	349
f 405 	171 	168
f 356 	407 	353
f 405 	408 	171
f 921 	407 	356
f 353 	407 	412
f 409 	173 	172
f 408 	409 	172
f 176 	413 	142
f 413 	105 	142
f 142 	94 	176
f 405 	329 	408
f 412 	416 	414
f 407 	416 	412
f 414 	415 	411
f 416 	415 	414
f 408 	329 	333
f 408 	333 	409
f 338 	410 	409
f 342 	413 	410
f 410 	338 	342
f 413 	342 	105
f 73 	418 	419
f 419 	420 	73
f 434 	73 	420
f 434 	435 	73
f 417 	425 	421
f 73 	721 	723
f 423 	81 	79
f 79 	422 	423
f 424 	81 	423
f 150 	83 	424
f 165 	417 	672
f 425 	417 	165
f 165 	172 	425
f 421 	427 	422
f 421 	425 	427
f 422 	427 	432
f 330 	449 	426
f 422 	432 	423
f 426 	450 	428
f 423 	432 	433
f 450 	452 	428
f 428 	452 	429
f 432 	176 	433
f 423 	433 	424
f 424 	157 	150
f 424 	433 	157
f 425 	173 	427
f 172 	173 	425
f 418 	440 	419
f 432 	427 	174
f 427 	173 	174
f 435 	436 	73
f 176 	432 	174
f 433 	176 	94
f 430 	463 	431
f 433 	94 	157
f 431 	438 	418
f 438 	431 	463
f 438 	440 	418
f 419 	764 	420
f 440 	764 	419
f 434 	768 	435
f 435 	769 	436
f 443 	468 	444
f 288 	291 	283
f 451 	468 	443
f 272 	445 	253
f 446 	441 	439
f 253 	445 	288
f 445 	447 	288
f 446 	448 	441
f 330 	411 	449
f 291 	288 	447
f 441 	448 	442
f 449 	450 	426
f 442 	451 	443
f 448 	451 	442
f 458 	447 	445
f 458 	460 	447
f 549 	444 	468
f 463 	430 	461
f 411 	415 	453
f 457 	459 	446
f 453 	449 	411
f 453 	456 	449
f 455 	272 	454
f 451 	448 	469
f 466 	454 	278
f 450 	449 	456
f 272 	455 	445
f 415 	56 	453
f 455 	458 	445
f 457 	471 	459
f 446 	459 	448
f 461 	430 	429
f 452 	461 	429
f 462 	457 	57
f 57 	62 	462
f 791 	463 	467
f 464 	275 	248
f 462 	471 	457
f 464 	248 	250
f 465 	452 	450
f 464 	466 	275
f 456 	465 	450
f 62 	72 	462
f 452 	465 	467
f 454 	272 	278
f 452 	467 	461
f 461 	467 	463
f 974 	1027 	454
f 792 	438 	463
f 791 	792 	463
f 454 	1027 	455
f 469 	448 	459
f 456 	940 	133
f 451 	469 	470
f 133 	465 	456
f 469 	526 	470
f 458 	1037 	460
f 470 	468 	451
f 470 	562 	468
f 125 	406 	128
f 302 	308 	402
f 403 	402 	477
f 308 	477 	402
f 37 	476 	28
f 403 	479 	406
f 477 	479 	403
f 479 	483 	406
f 406 	483 	473
f 489 	294 	404
f 308 	494 	477
f 494 	495 	477
f 488 	491 	481
f 477 	495 	479
f 479 	496 	483
f 481 	491 	484
f 491 	493 	484
f 308 	314 	494
f 494 	499 	495
f 486 	646 	488
f 496 	479 	495
f 314 	318 	498
f 498 	494 	314
f 286 	261 	401
f 498 	499 	494
f 491 	655 	493
f 401 	290 	286
f 495 	500 	496
f 499 	500 	495
f 290 	401 	315
f 401 	324 	315
f 290 	315 	312
f 539 	498 	318
f 498 	541 	499
f 401 	323 	324
f 501 	507 	503
f 501 	506 	507
f 502 	504 	141
f 502 	509 	504
f 508 	509 	502
f 504 	143 	141
f 506 	501 	819
f 473 	483 	508
f 508 	502 	473
f 503 	507 	510
f 503 	510 	505
f 505 	510 	257
f 504 	511 	143
f 143 	511 	145
f 505 	257 	256
f 145 	512 	147
f 821 	513 	506
f 512 	145 	511
f 821 	827 	513
f 506 	513 	515
f 504 	516 	511
f 515 	507 	506
f 507 	517 	510
f 509 	516 	504
f 516 	518 	511
f 515 	517 	507
f 512 	511 	518
f 510 	517 	259
f 518 	1009 	512
f 518 	59 	1009
f 512 	1009 	514
f 510 	259 	257
f 1009 	1011 	514
f 524 	516 	509
f 524 	527 	516
f 515 	572 	517
f 508 	483 	519
f 517 	536 	259
f 496 	519 	483
f 519 	521 	508
f 471 	522 	459
f 471 	773 	522
f 771 	773 	471
f 509 	508 	521
f 310 	520 	523
f 522 	469 	459
f 521 	524 	509
f 522 	526 	469
f 527 	518 	516
f 185 	525 	528
f 523 	503 	525
f 771 	471 	462
f 527 	59 	518
f 500 	529 	496
f 528 	186 	185
f 529 	519 	496
f 521 	519 	530
f 529 	530 	519
f 271 	188 	186
f 530 	531 	521
f 530 	601 	531
f 521 	531 	524
f 531 	534 	524
f 532 	544 	533
f 501 	523 	520
f 532 	546 	544
f 523 	501 	503
f 524 	534 	527
f 528 	525 	505
f 527 	58 	59
f 533 	535 	136
f 525 	503 	505
f 534 	58 	527
f 256 	528 	505
f 597 	530 	529
f 824 	137 	535
f 11 	535 	533
f 260 	538 	540
f 545 	538 	536
f 260 	540 	261
f 539 	541 	498
f 541 	542 	499
f 549 	537 	444
f 572 	543 	536
f 550 	552 	541
f 532 	537 	546
f 541 	552 	542
f 542 	500 	499
f 544 	11 	533
f 536 	543 	545
f 11 	4 	535
f 538 	545 	547
f 545 	554 	547
f 468 	562 	549
f 548 	539 	387
f 538 	547 	540
f 548 	387 	394
f 549 	546 	537
f 548 	550 	539
f 548 	558 	550
f 550 	541 	539
f 543 	551 	553
f 546 	557 	544
f 557 	12 	544
f 544 	12 	11
f 543 	553 	545
f 399 	555 	394
f 554 	545 	553
f 394 	555 	548
f 546 	556 	557
f 381 	482 	608
f 564 	14 	557
f 551 	596 	553
f 557 	14 	12
f 689 	560 	561
f 472 	563 	285
f 549 	556 	546
f 553 	599 	554
f 472 	561 	563
f 553 	596 	599
f 563 	303 	285
f 562 	556 	549
f 617 	554 	599
f 557 	556 	564
f 560 	565 	561
f 261 	323 	401
f 566 	564 	556
f 561 	565 	567
f 261 	540 	323
f 391 	323 	540
f 561 	567 	563
f 391 	540 	547
f 563 	567 	310
f 547 	554 	395
f 568 	562 	470
f 395 	391 	547
f 470 	526 	568
f 568 	566 	562
f 563 	310 	303
f 395 	554 	617
f 575 	841 	831
f 617 	684 	395
f 566 	556 	562
f 513 	569 	570
f 567 	520 	310
f 564 	29 	14
f 513 	570 	515
f 572 	515 	570
f 536 	517 	572
f 568 	796 	566
f 571 	575 	560
f 72 	771 	462
f 571 	574 	575
f 575 	565 	560
f 570 	581 	572
f 72 	82 	775
f 572 	581 	543
f 214 	212 	600
f 300 	298 	492
f 298 	489 	492
f 600 	215 	214
f 831 	565 	575
f 218 	591 	577
f 569 	578 	570
f 115 	118 	579
f 482 	590 	559
f 569 	576 	578
f 35 	580 	36
f 581 	570 	578
f 579 	307 	115
f 577 	580 	35
f 380 	582 	381
f 583 	307 	579
f 382 	582 	380
f 404 	585 	489
f 582 	586 	381
f 580 	584 	36
f 404 	583 	585
f 489 	585 	588
f 584 	476 	37
f 555 	558 	548
f 586 	482 	381
f 584 	484 	476
f 586 	590 	482
f 550 	589 	552
f 489 	588 	492
f 558 	589 	550
f 279 	492 	588
f 589 	673 	552
f 590 	893 	559
f 577 	592 	580
f 579 	63 	64
f 591 	592 	577
f 579 	64 	583
f 592 	481 	580
f 583 	65 	585
f 488 	481 	592
f 583 	64 	65
f 147 	582 	382
f 584 	580 	481
f 586 	582 	148
f 762 	558 	555
f 65 	67 	585
f 147 	148 	582
f 558 	763 	589
f 584 	481 	484
f 593 	591 	221
f 588 	67 	47
f 762 	763 	558
f 588 	47 	279
f 593 	221 	223
f 500 	542 	595
f 593 	486 	591
f 500 	595 	529
f 596 	551 	594
f 595 	597 	529
f 591 	486 	592
f 598 	374 	366
f 486 	488 	592
f 597 	601 	530
f 378 	598 	366
f 223 	284 	593
f 601 	603 	531
f 598 	379 	602
f 378 	379 	598
f 594 	605 	596
f 603 	534 	531
f 606 	116 	28
f 594 	604 	605
f 602 	380 	607
f 603 	66 	534
f 596 	605 	622
f 476 	606 	28
f 605 	694 	622
f 116 	606 	609
f 66 	603 	76
f 66 	58 	534
f 596 	622 	599
f 606 	615 	609
f 116 	609 	117
f 614 	595 	542
f 599 	622 	690
f 619 	601 	597
f 611 	117 	609
f 611 	63 	118
f 604 	612 	692
f 69 	63 	611
f 603 	621 	76
f 692 	605 	604
f 380 	602 	379
f 380 	381 	607
f 613 	606 	476
f 381 	608 	607
f 694 	605 	692
f 484 	613 	476
f 614 	542 	552
f 615 	606 	613
f 614 	616 	595
f 552 	673 	614
f 614 	674 	616
f 673 	674 	614
f 595 	616 	597
f 599 	690 	617
f 609 	615 	620
f 616 	619 	597
f 603 	601 	621
f 619 	621 	601
f 602 	607 	623
f 623 	607 	624
f 624 	625 	807
f 618 	374 	598
f 598 	602 	618
f 618 	602 	623
f 624 	608 	625
f 607 	608 	624
f 608 	610 	625
f 625 	610 	626
f 628 	627 	610
f 626 	610 	627
f 628 	629 	627
f 629 	633 	630
f 482 	610 	608
f 482 	559 	610
f 559 	628 	610
f 628 	632 	629
f 559 	632 	628
f 632 	633 	629
f 632 	904 	633
f 893 	632 	559
f 893 	904 	632
f 637 	344 	634
f 637 	162 	344
f 161 	162 	637
f 634 	344 	635
f 635 	344 	651
f 346 	651 	344
f 193 	161 	636
f 637 	636 	161
f 611 	609 	620
f 69 	611 	620
f 484 	493 	613
f 666 	638 	639
f 613 	493 	640
f 615 	613 	640
f 615 	641 	620
f 644 	639 	638
f 615 	640 	641
f 78 	620 	641
f 634 	668 	642
f 78 	641 	421
f 643 	638 	680
f 644 	638 	643
f 641 	417 	421
f 643 	192 	644
f 643 	190 	192
f 645 	486 	593
f 593 	284 	645
f 636 	639 	644
f 645 	646 	486
f 642 	639 	636
f 642 	637 	634
f 284 	291 	647
f 637 	642 	636
f 647 	645 	284
f 645 	648 	646
f 647 	648 	645
f 644 	193 	636
f 291 	447 	649
f 192 	193 	644
f 649 	647 	291
f 649 	650 	647
f 647 	650 	648
f 650 	652 	648
f 671 	650 	649
f 347 	352 	653
f 653 	352 	369
f 369 	370 	657
f 488 	646 	654
f 653 	651 	347
f 654 	491 	488
f 346 	347 	651
f 654 	655 	491
f 661 	663 	654
f 654 	663 	655
f 646 	661 	654
f 648 	661 	646
f 661 	665 	663
f 653 	369 	656
f 369 	657 	656
f 658 	657 	370
f 663 	664 	655
f 664 	165 	672
f 658 	371 	659
f 659 	372 	660
f 371 	372 	659
f 168 	171 	664
f 660 	374 	662
f 171 	165 	664
f 372 	374 	660
f 648 	652 	661
f 374 	618 	662
f 652 	665 	661
f 168 	663 	665
f 638 	666 	715
f 664 	663 	168
f 667 	666 	639
f 667 	639 	642
f 667 	642 	668
f 634 	669 	668
f 669 	635 	670
f 355 	168 	665
f 669 	634 	635
f 460 	649 	447
f 635 	651 	670
f 649 	460 	671
f 650 	348 	652
f 671 	348 	650
f 350 	665 	652
f 348 	350 	652
f 350 	355 	665
f 671 	357 	348
f 493 	672 	640
f 493 	655 	672
f 640 	417 	641
f 640 	672 	417
f 670 	675 	73
f 655 	664 	672
f 73 	675 	656
f 674 	676 	616
f 674 	794 	676
f 616 	676 	619
f 676 	677 	619
f 651 	675 	670
f 619 	677 	621
f 675 	653 	656
f 621 	84 	76
f 651 	653 	675
f 677 	84 	621
f 789 	790 	673
f 673 	790 	674
f 674 	790 	794
f 677 	163 	84
f 682 	687 	689
f 682 	689 	683
f 396 	685 	398
f 687 	682 	681
f 687 	681 	686
f 685 	688 	398
f 687 	560 	689
f 683 	472 	703
f 683 	689 	472
f 691 	684 	617
f 680 	638 	715
f 617 	690 	691
f 691 	693 	684
f 695 	704 	289
f 678 	695 	679
f 699 	701 	691
f 679 	696 	680
f 691 	701 	693
f 679 	695 	696
f 684 	693 	685
f 622 	694 	697
f 643 	680 	696
f 693 	698 	685
f 695 	289 	296
f 685 	698 	688
f 622 	697 	690
f 695 	296 	696
f 296 	190 	696
f 698 	765 	688
f 696 	190 	643
f 691 	690 	699
f 692 	612 	742
f 690 	697 	699
f 740 	742 	612
f 600 	389 	388
f 600 	390 	389
f 700 	727 	703
f 693 	702 	698
f 700 	704 	678
f 694 	729 	697
f 700 	703 	704
f 704 	695 	678
f 701 	702 	693
f 697 	729 	730
f 703 	472 	285
f 703 	285 	704
f 706 	717 	718
f 706 	718 	708
f 594 	708 	604
f 708 	718 	604
f 1046 	716 	705
f 725 	709 	707
f 705 	717 	706
f 705 	716 	717
f 717 	724 	718
f 727 	711 	710
f 700 	712 	711
f 712 	700 	678
f 712 	678 	713
f 713 	679 	714
f 713 	678 	679
f 714 	680 	715
f 717 	722 	724
f 714 	679 	680
f 604 	718 	612
f 718 	724 	612
f 720 	73 	437
f 721 	73 	720
f 716 	719 	722
f 717 	716 	722
f 437 	731 	720
f 723 	737 	707
f 723 	735 	737
f 707 	737 	725
f 724 	740 	612
f 709 	726 	710
f 709 	725 	726
f 710 	726 	727
f 711 	727 	700
f 692 	728 	694
f 729 	694 	728
f 728 	732 	729
f 728 	746 	732
f 687 	571 	560
f 689 	561 	472
f 720 	731 	733
f 731 	741 	733
f 729 	732 	734
f 733 	721 	720
f 732 	738 	734
f 721 	733 	735
f 729 	734 	730
f 735 	723 	721
f 730 	734 	736
f 744 	737 	735
f 737 	744 	725
f 681 	725 	744
f 682 	725 	681
f 739 	741 	731
f 733 	743 	735
f 742 	728 	692
f 733 	741 	743
f 735 	743 	744
f 740 	856 	745
f 740 	745 	742
f 741 	753 	754
f 754 	743 	741
f 743 	747 	744
f 681 	744 	686
f 747 	686 	744
f 750 	747 	749
f 751 	749 	748
f 747 	750 	686
f 686 	750 	571
f 750 	573 	574
f 750 	574 	571
f 686 	571 	687
f 748 	760 	751
f 751 	573 	749
f 749 	573 	750
f 753 	741 	739
f 739 	752 	753
f 743 	754 	747
f 833 	755 	752
f 600 	376 	375
f 752 	755 	756
f 753 	752 	756
f 699 	697 	730
f 748 	754 	753
f 748 	753 	756
f 754 	748 	749
f 754 	749 	747
f 600 	287 	368
f 755 	759 	756
f 600 	293 	287
f 600 	297 	293
f 900 	776 	702
f 699 	757 	701
f 600 	299 	297
f 730 	757 	699
f 600 	301 	299
f 730 	736 	757
f 759 	755 	758
f 756 	760 	748
f 600 	309 	301
f 756 	759 	760
f 761 	399 	688
f 600 	208 	309
f 688 	765 	761
f 600 	209 	208
f 761 	555 	399
f 761 	762 	555
f 600 	211 	209
f 600 	212 	211
f 938 	751 	760
f 600 	474 	215
f 600 	475 	474
f 420 	764 	766
f 775 	771 	72
f 765 	767 	761
f 766 	434 	420
f 90 	89 	119
f 766 	768 	434
f 135 	786 	90
f 761 	767 	762
f 767 	770 	762
f 119 	135 	90
f 435 	768 	769
f 772 	437 	436
f 436 	769 	772
f 762 	770 	763
f 437 	772 	731
f 522 	774 	526
f 764 	440 	779
f 793 	779 	440
f 767 	765 	778
f 773 	774 	522
f 766 	764 	781
f 781 	764 	779
f 778 	782 	767
f 767 	782 	770
f 768 	784 	769
f 698 	702 	776
f 765 	698 	776
f 772 	785 	739
f 771 	777 	773
f 772 	739 	731
f 765 	776 	778
f 775 	777 	771
f 777 	780 	773
f 781 	783 	766
f 773 	780 	774
f 780 	814 	774
f 788 	780 	777
f 783 	768 	766
f 783 	784 	768
f 772 	769 	785
f 769 	784 	785
f 82 	786 	775
f 702 	899 	900
f 82 	90 	786
f 786 	787 	775
f 828 	781 	779
f 914 	782 	778
f 783 	781 	829
f 775 	787 	777
f 829 	781 	828
f 787 	788 	777
f 789 	673 	589
f 785 	784 	833
f 752 	739 	785
f 789 	589 	763
f 785 	833 	752
f 135 	138 	786
f 801 	790 	789
f 786 	138 	787
f 138 	191 	787
f 787 	191 	788
f 792 	793 	438
f 790 	805 	794
f 191 	219 	788
f 792 	823 	793
f 566 	795 	564
f 438 	793 	440
f 566 	796 	795
f 676 	797 	677
f 794 	797 	676
f 467 	465 	228
f 29 	564 	795
f 797 	163 	677
f 526 	774 	798
f 774 	814 	798
f 789 	763 	800
f 726 	725 	682
f 798 	568 	526
f 770 	800 	763
f 796 	568 	798
f 726 	682 	683
f 800 	801 	789
f 798 	802 	796
f 726 	683 	727
f 800 	889 	801
f 683 	703 	727
f 888 	889 	800
f 796 	802 	803
f 801 	805 	790
f 802 	816 	803
f 808 	797 	794
f 796 	803 	795
f 795 	32 	29
f 576 	587 	812
f 32 	795 	803
f 576 	812 	578
f 578 	815 	581
f 618 	804 	662
f 814 	802 	798
f 578 	812 	815
f 618 	623 	804
f 581 	815 	551
f 804 	623 	806
f 802 	817 	816
f 623 	624 	806
f 816 	35 	803
f 581 	551 	543
f 806 	624 	807
f 705 	587 	897
f 809 	807 	625
f 818 	814 	780
f 587 	706 	812
f 625 	626 	809
f 587 	705 	706
f 812 	706 	708
f 788 	818 	780
f 818 	817 	814
f 708 	815 	812
f 708 	594 	815
f 814 	817 	802
f 594 	551 	815
f 817 	217 	218
f 810 	809 	626
f 520 	819 	501
f 218 	816 	817
f 626 	627 	810
f 218 	577 	816
f 810 	627 	811
f 816 	577 	35
f 799 	467 	228
f 600 	478 	475
f 799 	791 	467
f 788 	219 	818
f 792 	791 	822
f 818 	217 	817
f 836 	821 	819
f 799 	822 	791
f 219 	217 	818
f 823 	792 	822
f 506 	819 	821
f 824 	236 	137
f 824 	1 	236
f 535 	4 	824
f 4 	5 	824
f 799 	228 	234
f 824 	5 	1
f 238 	236 	1
f 234 	240 	799
f 826 	820 	851
f 820 	827 	821
f 799 	240 	822
f 600 	480 	478
f 820 	826 	827
f 822 	866 	823
f 600 	485 	480
f 822 	240 	866
f 600 	950 	490
f 600 	951 	950
f 600 	952 	951
f 830 	783 	829
f 827 	569 	513
f 600 	955 	952
f 600 	958 	955
f 830 	784 	783
f 833 	784 	830
f 832 	567 	565
f 829 	850 	830
f 830 	850 	852
f 830 	852 	833
f 565 	831 	832
f 1004 	949 	600
f 520 	567 	832
f 600 	1005 	1004
f 828 	869 	834
f 742 	746 	728
f 836 	832 	831
f 835 	813 	811
f 742 	745 	746
f 811 	627 	835
f 520 	832 	819
f 600 	487 	485
f 832 	836 	819
f 345 	813 	835
f 487 	600 	490
f 629 	835 	627
f 745 	837 	838
f 835 	630 	345
f 837 	844 	838
f 334 	813 	345
f 836 	820 	821
f 334 	349 	335
f 745 	838 	746
f 345 	349 	334
f 746 	839 	732
f 746 	838 	839
f 858 	573 	751
f 738 	732 	839
f 573 	840 	574
f 629 	630 	835
f 958 	600 	949
f 573 	858 	840
f 837 	842 	844
f 574 	840 	841
f 574 	841 	575
f 600 	1010 	1008
f 858 	843 	840
f 1016 	839 	838
f 840 	843 	845
f 838 	844 	1016
f 840 	845 	841
f 841 	845 	846
f 841 	846 	831
f 846 	836 	831
f 842 	1019 	844
f 807 	809 	73
f 722 	719 	847
f 809 	810 	73
f 846 	820 	836
f 722 	847 	848
f 843 	849 	845
f 829 	828 	834
f 847 	855 	848
f 847 	853 	855
f 722 	848 	724
f 849 	851 	845
f 834 	850 	829
f 848 	740 	724
f 845 	851 	846
f 740 	848 	856
f 846 	851 	820
f 833 	852 	755
f 875 	853 	847
f 825 	851 	849
f 825 	849 	854
f 73 	811 	813
f 851 	825 	826
f 813 	334 	73
f 856 	848 	855
f 854 	877 	825
f 853 	857 	859
f 853 	859 	855
f 855 	859 	862
f 861 	843 	858
f 852 	850 	884
f 852 	758 	755
f 855 	862 	856
f 852 	884 	758
f 856 	862 	837
f 793 	864 	779
f 823 	864 	793
f 860 	865 	861
f 864 	828 	779
f 863 	865 	860
f 861 	865 	867
f 856 	837 	745
f 864 	823 	868
f 823 	866 	868
f 864 	869 	828
f 861 	867 	843
f 864 	868 	869
f 867 	849 	843
f 240 	295 	866
f 857 	972 	859
f 866 	871 	868
f 866 	295 	871
f 863 	870 	872
f 868 	871 	876
f 862 	973 	842
f 863 	872 	865
f 865 	872 	873
f 842 	837 	862
f 865 	873 	867
f 867 	854 	849
f 867 	873 	854
f 959 	871 	295
f 915 	917 	870
f 872 	919 	873
f 847 	719 	875
f 825 	879 	826
f 868 	876 	869
f 880 	869 	876
f 825 	877 	879
f 805 	808 	794
f 874 	878 	882
f 826 	881 	827
f 808 	175 	797
f 880 	834 	869
f 881 	826 	879
f 883 	834 	880
f 569 	827 	881
f 797 	175 	163
f 850 	834 	883
f 850 	883 	884
f 801 	890 	805
f 877 	886 	879
f 805 	891 	808
f 877 	885 	886
f 879 	886 	887
f 960 	87 	876
f 782 	888 	770
f 880 	876 	87
f 888 	800 	770
f 953 	883 	880
f 881 	879 	887
f 881 	887 	576
f 954 	884 	883
f 887 	587 	576
f 890 	801 	889
f 576 	569 	881
f 890 	891 	805
f 590 	896 	893
f 586 	148 	894
f 181 	175 	808
f 885 	892 	895
f 808 	891 	181
f 586 	894 	590
f 894 	896 	590
f 885 	895 	886
f 886 	897 	887
f 886 	895 	897
f 896 	898 	893
f 587 	887 	897
f 148 	1007 	894
f 894 	439 	896
f 998 	181 	891
f 1007 	439 	894
f 439 	441 	896
f 702 	701 	899
f 898 	896 	441
f 899 	701 	757
f 441 	442 	898
f 630 	901 	631
f 905 	909 	899
f 899 	909 	900
f 633 	901 	630
f 1046 	705 	897
f 631 	901 	902
f 356 	631 	902
f 877 	854 	903
f 912 	778 	776
f 757 	736 	905
f 901 	633 	906
f 757 	905 	899
f 906 	633 	904
f 907 	903 	919
f 986 	905 	736
f 901 	908 	902
f 906 	908 	901
f 903 	907 	885
f 916 	912 	900
f 907 	892 	885
f 909 	916 	900
f 903 	885 	877
f 905 	988 	909
f 905 	986 	988
f 898 	904 	893
f 904 	911 	906
f 909 	988 	990
f 900 	912 	776
f 892 	907 	910
f 904 	898 	911
f 911 	913 	906
f 912 	914 	778
f 908 	906 	913
f 870 	917 	872
f 916 	918 	912
f 919 	872 	917
f 898 	442 	911
f 912 	918 	914
f 911 	443 	913
f 903 	854 	873
f 442 	443 	911
f 873 	919 	903
f 443 	444 	913
f 269 	922 	915
f 990 	916 	909
f 915 	924 	917
f 915 	922 	924
f 920 	56 	415
f 917 	925 	919
f 919 	925 	907
f 277 	926 	922
f 902 	921 	356
f 921 	923 	407
f 925 	917 	924
f 923 	416 	407
f 923 	920 	416
f 924 	930 	925
f 929 	923 	921
f 416 	920 	415
f 55 	920 	931
f 902 	908 	927
f 922 	926 	928
f 927 	921 	902
f 926 	1091 	928
f 922 	928 	924
f 927 	929 	921
f 930 	924 	928
f 925 	930 	910
f 931 	920 	923
f 910 	907 	925
f 929 	934 	932
f 1091 	926 	1090
f 929 	931 	923
f 931 	136 	55
f 931 	932 	136
f 1092 	930 	928
f 908 	913 	933
f 933 	913 	444
f 933 	927 	908
f 933 	934 	927
f 933 	537 	934
f 444 	537 	933
f 935 	758 	884
f 927 	934 	929
f 758 	935 	936
f 936 	759 	758
f 929 	932 	931
f 932 	532 	533
f 937 	760 	759
f 932 	533 	136
f 759 	936 	937
f 760 	937 	938
f 934 	532 	932
f 537 	532 	934
f 858 	751 	938
f 940 	456 	453
f 453 	56 	940
f 935 	941 	936
f 935 	939 	941
f 131 	940 	56
f 942 	936 	941
f 937 	936 	942
f 133 	228 	465
f 937 	942 	860
f 937 	860 	938
f 938 	861 	858
f 938 	860 	861
f 939 	944 	941
f 945 	942 	941
f 363 	377 	600
f 363 	600 	365
f 600 	367 	365
f 944 	939 	943
f 368 	367 	600
f 944 	945 	941
f 942 	945 	863
f 942 	863 	860
f 946 	943 	195
f 946 	195 	204
f 943 	946 	947
f 946 	268 	947
f 943 	947 	944
f 944 	947 	948
f 948 	945 	944
f 945 	870 	863
f 945 	948 	870
f 267 	946 	204
f 497 	950 	966
f 946 	267 	268
f 950 	497 	490
f 947 	268 	269
f 947 	269 	948
f 948 	269 	915
f 948 	915 	870
f 953 	880 	87
f 954 	883 	953
f 935 	884 	954
f 87 	956 	953
f 953 	956 	957
f 953 	957 	954
f 954 	939 	935
f 954 	957 	939
f 194 	956 	85
f 956 	195 	957
f 956 	194 	195
f 957 	195 	943
f 874 	882 	875
f 957 	943 	939
f 875 	882 	853
f 853 	882 	857
f 871 	960 	876
f 871 	959 	960
f 882 	878 	962
f 878 	961 	962
f 962 	857 	882
f 17 	19 	959
f 88 	960 	959
f 963 	964 	250
f 959 	19 	88
f 961 	970 	962
f 960 	85 	87
f 969 	978 	963
f 464 	250 	964
f 960 	88 	85
f 87 	85 	956
f 970 	961 	967
f 967 	327 	970
f 967 	325 	327
f 969 	963 	1079
f 964 	963 	978
f 857 	962 	971
f 962 	970 	971
f 857 	971 	972
f 950 	951 	966
f 966 	951 	968
f 969 	968 	952
f 973 	862 	859
f 951 	952 	968
f 973 	859 	972
f 918 	916 	975
f 464 	976 	466
f 990 	975 	916
f 964 	976 	464
f 466 	974 	454
f 976 	974 	466
f 965 	354 	325
f 974 	977 	1031
f 965 	325 	967
f 979 	888 	782
f 964 	978 	980
f 979 	782 	914
f 978 	958 	980
f 979 	981 	888
f 980 	976 	964
f 979 	984 	981
f 980 	977 	976
f 981 	889 	888
f 981 	995 	889
f 976 	977 	974
f 889 	995 	890
f 914 	918 	982
f 734 	738 	983
f 982 	979 	914
f 969 	952 	955
f 982 	984 	979
f 983 	736 	734
f 983 	986 	736
f 985 	995 	981
f 984 	985 	981
f 978 	969 	955
f 955 	958 	978
f 987 	982 	918
f 918 	975 	987
f 987 	989 	982
f 958 	949 	980
f 980 	949 	977
f 982 	989 	984
f 1047 	984 	989
f 986 	999 	988
f 1047 	985 	984
f 1001 	1003 	990
f 1003 	975 	990
f 738 	994 	983
f 994 	996 	983
f 991 	1010 	600
f 890 	997 	891
f 600 	992 	991
f 995 	997 	890
f 992 	600 	993
f 996 	986 	983
f 997 	998 	891
f 996 	999 	986
f 995 	985 	1000
f 995 	1000 	997
f 1025 	1023 	600
f 1001 	990 	988
f 997 	1002 	998
f 1000 	1002 	997
f 999 	1001 	988
f 600 	388 	1025
f 390 	600 	373
f 600 	375 	373
f 1052 	231 	1002
f 977 	949 	1004
f 1056 	989 	987
f 148 	514 	1007
f 514 	1011 	1007
f 1007 	1012 	439
f 1011 	1012 	1007
f 446 	439 	1012
f 57 	1012 	1011
f 991 	992 	1014
f 457 	446 	1012
f 57 	457 	1012
f 1006 	1005 	600
f 600 	1008 	1006
f 1009 	1013 	1011
f 59 	1013 	1009
f 1013 	57 	1011
f 61 	62 	1013
f 1013 	62 	57
f 1014 	1015 	397
f 999 	1030 	1001
f 1001 	1032 	1003
f 1030 	1032 	1001
f 1014 	992 	1015
f 1015 	992 	993
f 738 	839 	1017
f 993 	184 	1015
f 839 	1016 	1017
f 187 	184 	1018
f 994 	738 	1017
f 993 	1018 	184
f 844 	1020 	1016
f 1021 	187 	1018
f 844 	1019 	1020
f 1016 	1020 	1022
f 1021 	189 	187
f 1023 	189 	1021
f 1016 	1022 	1017
f 205 	189 	1023
f 1017 	1024 	994
f 1022 	1024 	1017
f 994 	1026 	996
f 388 	109 	206
f 388 	206 	1025
f 600 	1018 	993
f 1083 	198 	1019
f 600 	1021 	1018
f 1021 	600 	1023
f 1020 	202 	1022
f 1022 	1035 	1024
f 994 	1024 	1026
f 974 	1031 	1027
f 1028 	999 	996
f 1027 	1029 	455
f 1027 	1033 	1029
f 996 	1026 	1028
f 1028 	1030 	999
f 455 	1029 	458
f 1029 	1037 	458
f 1024 	1035 	1026
f 1033 	1027 	1031
f 1033 	1034 	1029
f 1038 	1028 	1026
f 1040 	1041 	1030
f 977 	1004 	1031
f 1033 	1031 	1005
f 1030 	1041 	1032
f 1004 	1005 	1031
f 1034 	1033 	1006
f 1005 	1006 	1033
f 1006 	1008 	1034
f 1022 	202 	1035
f 1036 	1026 	1035
f 1036 	1038 	1026
f 1036 	212 	1038
f 460 	1037 	1039
f 1028 	1040 	1030
f 460 	1039 	671
f 357 	671 	1039
f 1040 	1028 	1038
f 1034 	1037 	1029
f 1037 	1042 	1039
f 1042 	1037 	1034
f 214 	1040 	1038
f 1039 	1042 	1043
f 357 	1043 	1014
f 991 	1014 	1043
f 474 	1068 	1041
f 1014 	397 	357
f 1008 	1042 	1034
f 1043 	1042 	1010
f 209 	211 	1035
f 211 	1036 	1035
f 1008 	1010 	1042
f 1043 	1010 	991
f 211 	212 	1036
f 892 	910 	1044
f 212 	214 	1038
f 910 	1055 	1044
f 892 	1044 	1045
f 215 	1040 	214
f 215 	1041 	1040
f 1045 	895 	892
f 215 	474 	1041
f 895 	1045 	1046
f 1048 	1045 	1044
f 1046 	897 	895
f 1047 	1049 	985
f 1059 	1048 	1044
f 985 	1049 	1000
f 1045 	1048 	1050
f 1051 	1000 	1049
f 1045 	1050 	1046
f 1000 	1051 	1002
f 1046 	1050 	716
f 1051 	1052 	1002
f 1052 	237 	231
f 1059 	1089 	1048
f 1048 	1053 	1050
f 1058 	1060 	1047
f 1050 	1053 	719
f 1050 	719 	716
f 1053 	875 	719
f 1054 	987 	975
f 975 	1003 	1054
f 1053 	874 	875
f 1054 	1056 	987
f 1055 	910 	930
f 1058 	1047 	989
f 1055 	1057 	1059
f 1056 	1058 	989
f 1047 	1060 	1049
f 1049 	1061 	1051
f 1060 	1061 	1049
f 1051 	1062 	1052
f 1061 	1062 	1051
f 1056 	1065 	1058
f 1066 	1060 	1058
f 1063 	1054 	1003
f 1063 	1003 	1032
f 1063 	1064 	1054
f 1056 	1054 	1064
f 1064 	1065 	1056
f 1066 	1058 	1065
f 1066 	1067 	1060
f 1064 	1063 	1069
f 1066 	1065 	1071
f 1041 	1068 	1032
f 1032 	1068 	1063
f 1068 	1069 	1063
f 1070 	1065 	1064
f 1069 	1070 	1064
f 1065 	1070 	1071
f 1066 	1072 	1067
f 1066 	1071 	1072
f 1073 	490 	497
f 1068 	475 	1069
f 474 	475 	1068
f 478 	1070 	1069
f 475 	478 	1069
f 1071 	1070 	480
f 478 	480 	1070
f 480 	485 	1071
f 1071 	485 	1072
f 487 	1073 	1072
f 485 	487 	1072
f 487 	490 	1073
f 1074 	1052 	1062
f 1074 	1075 	237
f 1074 	1078 	1075
f 237 	1075 	246
f 1075 	249 	246
f 1060 	1067 	1061
f 1061 	1076 	1062
f 1067 	1076 	1061
f 1062 	1076 	1077
f 1074 	1062 	1077
f 1077 	1078 	1074
f 1078 	1079 	1075
f 249 	1075 	1079
f 963 	250 	249
f 1079 	963 	249
f 1076 	1067 	1073
f 1072 	1073 	1067
f 497 	1076 	1073
f 1076 	497 	1077
f 1077 	966 	1078
f 1077 	497 	966
f 1078 	966 	1079
f 968 	1079 	966
f 968 	969 	1079
f 972 	1080 	973
f 973 	1081 	842
f 1080 	1081 	973
f 1081 	1019 	842
f 1080 	134 	1082
f 1080 	1082 	1081
f 1081 	1083 	1019
f 1081 	1082 	1083
f 1020 	1019 	198
f 198 	202 	1020
f 1082 	134 	299
f 1082 	299 	301
f 1082 	301 	1083
f 1083 	309 	198
f 1083 	301 	309
f 1084 	971 	970
f 970 	327 	1084
f 1084 	1085 	971
f 327 	130 	1084
f 1084 	132 	1085
f 1084 	130 	132
f 972 	971 	1085
f 1080 	972 	1085
f 1080 	1085 	134
f 1085 	132 	134
f 1055 	1059 	1044
f 1057 	1088 	1059
f 1057 	1087 	1088
f 1059 	1088 	1089
f 1053 	1048 	1089
f 1086 	1097 	1105
f 1086 	42 	1087
f 1087 	1098 	1088
f 1087 	42 	1098
f 1089 	874 	1053
f 1090 	926 	282
f 1090 	282 	49
f 1092 	928 	1091
f 1055 	930 	1092
f 1095 	1092 	1091
f 1092 	1095 	1057
f 1055 	1092 	1057
f 49 	52 	1093
f 49 	1093 	1090
f 1090 	1094 	1091
f 1090 	1093 	1094
f 1095 	1091 	1094
f 52 	1096 	1093
f 1093 	1096 	1097
f 1096 	46 	1097
f 1093 	1097 	1094
f 1086 	1095 	1094
f 1094 	1097 	1086
f 1095 	1086 	1087
f 1095 	1087 	1057
f 1096 	155 	46
f 1088 	1098 	1099
f 1099 	1089 	1088
f 874 	1089 	1099
f 1100 	1098 	42
f 1098 	1100 	1101
f 1100 	1104 	1101
f 1098 	1101 	1099
f 1099 	878 	874
f 1099 	1101 	878
f 44 	43 	1102
f 1102 	41 	44
f 1103 	41 	1102
f 41 	1103 	1100
f 1104 	1100 	1103
f 961 	878 	1101
f 961 	1101 	1104
f 1102 	43 	101
f 45 	1103 	1102
f 1103 	45 	965
f 1103 	965 	1104
f 967 	961 	1104
f 1104 	965 	967
f 46 	1105 	1097
f 42 	1086 	1105
f 1106 	46 	155
f 155 	92 	1106
f 44 	46 	1106
f 98 	1106 	92
f 1106 	43 	44
f 1106 	98 	43
f 1105 	46 	44
f 1105 	41 	42
f 1105 	44 	41
f 1100 	42 	41
# 2208 faces

 #end of obj_0

